<?xml version="1.0" encoding="UTF-8" standalone="no"?>
<!-- Created with Inkscape (http://www.inkscape.org/) -->

<svg
   xmlns:dc="http://purl.org/dc/elements/1.1/"
   xmlns:cc="http://creativecommons.org/ns#"
   xmlns:rdf="http://www.w3.org/1999/02/22-rdf-syntax-ns#"
   xmlns:svg="http://www.w3.org/2000/svg"
   xmlns="http://www.w3.org/2000/svg"
   xmlns:sodipodi="http://sodipodi.sourceforge.net/DTD/sodipodi-0.dtd"
   xmlns:inkscape="http://www.inkscape.org/namespaces/inkscape"
   width="886.45898"
   height="235"
   id="svg2"
   version="1.1"
   inkscape:version="0.91 r13725"
   sodipodi:docname="DirecTVOldLogo.svg">
  <defs
     id="defs4" />
  <sodipodi:namedview
     id="base"
     pagecolor="#ffffff"
     bordercolor="#666666"
     borderopacity="1.0"
     inkscape:pageopacity="0.0"
     inkscape:pageshadow="2"
     inkscape:zoom="1.4"
     inkscape:cx="443.90444"
     inkscape:cy="100.92965"
     inkscape:document-units="px"
     inkscape:current-layer="g3023"
     showgrid="false"
     fit-margin-top="0"
     fit-margin-left="0"
     fit-margin-right="0"
     fit-margin-bottom="0"
     inkscape:window-width="1680"
     inkscape:window-height="931"
     inkscape:window-x="0"
     inkscape:window-y="1"
     inkscape:window-maximized="1" />
  <metadata
     id="metadata7">
    <rdf:RDF>
      <cc:Work
         rdf:about="">
        <dc:format>image/svg+xml</dc:format>
        <dc:type
           rdf:resource="http://purl.org/dc/dcmitype/StillImage" />
        <dc:title></dc:title>
      </cc:Work>
    </rdf:RDF>
  </metadata>
  <g
     inkscape:label="Layer 1"
     inkscape:groupmode="layer"
     id="layer1"
     transform="translate(114.77123,-234.19429)">
    <g
       id="g3023"
       transform="matrix(4.6996861,0,0,5.6211166,-761.66465,155.96495)"
       style="fill:#000000">
      <g
         style="font-style:italic;font-weight:normal;font-size:60px;font-family:'Franklin Gothic Heavy';text-align:start;text-anchor:start;fill:#000000"
         id="text3025">
        <g
           id="g3068"
           style="fill:#000000">
          <path
             id="path3043"
             style="font-style:italic;font-weight:normal;font-size:60px;font-family:'Franklin Gothic Heavy';text-align:start;text-anchor:start;fill:#000000"
             d="m 137.64609,54.84478 6.67969,-39.990234 13.33007,0 c 3.22264,4e-5 5.83494,0.234414 7.83692,0.703125 2.00192,0.468788 3.94039,1.484412 5.81543,3.046875 1.87496,1.562534 3.29097,3.549837 4.24804,5.961914 0.957,2.412137 1.43551,5.141626 1.43555,8.188476 -4e-5,3.945331 -0.73246,7.490249 -2.19726,10.634766 -1.46489,3.144539 -3.40336,5.639654 -5.81543,7.485351 -2.41214,1.845706 -4.76566,2.968751 -7.06055,3.369141 -2.29495,0.400391 -5.51272,0.600586 -9.65332,0.600586 z m 13.44726,-8.964844 2.69532,0 c 2.83201,9e-6 4.92185,-0.400381 6.26953,-1.201172 1.34763,-0.80077 2.50974,-2.290026 3.48633,-4.467773 0.97653,-2.177718 1.46481,-4.799785 1.46484,-7.866211 -3e-5,-5.898409 -2.23636,-8.847625 -6.70899,-8.847656 l -3.45703,0 z"
             inkscape:connector-curvature="0" />
          <path
             id="path3045"
             style="font-style:italic;font-weight:normal;font-size:60px;font-family:'Franklin Gothic Heavy';text-align:start;text-anchor:start;fill:#000000"
             d="m 194.89811,13.917046 -1.46485,8.701171 -11.48437,0 1.46484,-8.701171 z m -1.9043,11.33789 -4.95117,29.589844 -11.48438,0 4.95118,-29.589844 z"
             inkscape:connector-curvature="0" />
          <path
             id="path3047"
             style="font-style:italic;font-weight:normal;font-size:60px;font-family:'Franklin Gothic Heavy';text-align:start;text-anchor:start;fill:#000000"
             d="m 196.58962,25.254936 9.87305,0 -1.17188,7.089844 c 2.05077,-5.332003 5.18553,-7.998016 9.4043,-7.998047 0.332,3.1e-5 0.79099,0.04886 1.37695,0.146484 l -1.31836,10.546875 c -1.01565,-0.05857 -1.68947,-0.08787 -2.02148,-0.08789 -2.44143,2e-5 -4.23342,0.571308 -5.37598,1.713867 -1.14259,1.142595 -1.95802,3.16896 -2.44629,6.079102 l -2.02148,12.099609 -11.25,0 z"
             inkscape:connector-curvature="0" />
          <path
             id="path3049"
             style="font-style:italic;font-weight:normal;font-size:60px;font-family:'Franklin Gothic Heavy';text-align:start;text-anchor:start;fill:#000000"
             d="m 245.06013,42.247124 -19.04928,0 c -0.0913,0.800793 -0.13687,1.396495 -0.13686,1.787109 -1e-5,1.289072 0.38773,2.29493 1.16322,3.017578 0.77545,0.722664 1.75621,1.083991 2.94224,1.083985 2.24429,6e-6 3.83172,-1.240227 4.76232,-3.720704 l 9.30569,1.611329 c -1.2043,2.890631 -3.15211,5.229495 -5.84343,7.016601 -2.69137,1.78711 -5.67923,2.680663 -8.96356,2.680664 -4.12371,-10e-7 -7.46736,-1.254882 -10.03099,-3.764648 -2.56362,-2.50976 -3.84543,-5.932609 -3.84543,-10.268555 0,-4.707013 1.51445,-8.745095 4.54336,-12.114258 3.02891,-3.369112 6.98838,-5.05368 11.87844,-5.053711 4.14192,3.1e-5 7.43996,1.308623 9.89413,3.925782 2.45412,2.617211 3.68119,6.09377 3.68122,10.429687 -3e-5,0.976578 -0.10039,2.099623 -0.30107,3.369141 z m -9.96256,-5.712891 c 0.0912,-0.60545 0.13684,-1.074199 0.13685,-1.40625 -1e-5,-1.054667 -0.30565,-1.972634 -0.91688,-2.753906 -0.61127,-0.781227 -1.46429,-1.171852 -2.55906,-1.171875 -1.16779,2.3e-5 -2.22609,0.473656 -3.17488,1.420898 -0.94884,0.947287 -1.53272,2.250997 -1.75166,3.911133 z"
             inkscape:connector-curvature="0" />
          <path
             id="path3051"
             style="font-style:italic;font-weight:normal;font-size:60px;font-family:'Franklin Gothic Heavy';text-align:start;text-anchor:start;fill:#000000"
             d="m 266.24798,43.331108 8.93555,2.197266 c -1.60159,3.82813 -3.7012,6.479495 -6.29883,7.954101 -2.59768,1.47461 -5.28322,2.211913 -8.05664,2.211914 -4.08205,-1e-6 -7.417,-1.293945 -10.00489,-3.881836 -2.58789,-2.587885 -3.88183,-5.913077 -3.88183,-9.975586 0,-4.628888 1.52832,-8.720681 4.58496,-12.27539 3.05663,-3.554659 7.10448,-5.332001 12.14355,-5.332031 3.65233,3e-5 6.74803,1.098662 9.28711,3.295898 2.53904,2.197291 3.80857,5.024436 3.8086,8.481445 l -10.04883,1.171875 c -2e-5,-3.203104 -1.08401,-4.804665 -3.25195,-4.804687 -1.85549,2.2e-5 -3.17385,1.308615 -3.95508,3.925781 -0.78127,2.617204 -1.17189,4.902357 -1.17188,6.855469 -1e-5,2.890634 1.09374,4.335945 3.28125,4.335937 2.14842,8e-6 3.69139,-1.38671 4.62891,-4.160156 z"
             inkscape:connector-curvature="0" />
          <path
             id="path3053"
             style="font-style:italic;font-weight:normal;font-size:60px;font-family:'Franklin Gothic Heavy';text-align:start;text-anchor:start;fill:#000000"
             d="m 292.84547,23.936577 -5.18554,30.908203 -11.60157,0 5.18555,-30.908203 -8.55469,0 1.55274,-9.199219 28.94531,0 -1.52344,9.199219 z"
             inkscape:connector-curvature="0" />
          <path
             id="path3055"
             style="font-style:italic;font-weight:normal;font-size:60px;font-family:'Franklin Gothic Heavy';text-align:start;text-anchor:start;fill:#000000"
             d="m 326.26702,25.254936 -14.61914,29.589844 -8.90625,0 -7.5293,-29.589844 11.54297,0 3.39844,16.142578 7.85156,-16.142578 z"
             inkscape:connector-curvature="0" />
        </g>
      </g>
      <g
         style="font-style:italic;font-weight:normal;font-size:60px;font-family:'Franklin Gothic Heavy';text-align:start;text-anchor:start;fill:#000000"
         id="text3027" />
      <g
         style="font-style:italic;font-weight:normal;font-size:60px;font-family:'Franklin Gothic Heavy';text-align:start;text-anchor:start;fill:#000000"
         id="text3031" />
    </g>
  </g>
</svg>
